[{"line":1,"elements":[{"start_timestamp":"2024-01-25T14:46:08.001Z","line":4,"name":"Register Users tipo 1","description":"","id":"register-users-tipo-1","type":"scenario","keyword":"Scenario","steps":[{"name":"url 'https:\/\/reqres.in\/api\/register'","result":{"duration":1699835,"status":"passed"},"match":{"location":"karate","arguments":[]},"keyword":"Given","line":5},{"name":"def json = read ('..\/json\/register.json')","result":{"duration":20131353,"status":"passed"},"match":{"location":"karate","arguments":[]},"keyword":"*","line":6},{"name":"request json","result":{"duration":6285797,"status":"passed"},"match":{"location":"karate","arguments":[]},"keyword":"Given","line":7},{"name":"method GET","result":{"duration":868792072,"status":"passed"},"match":{"location":"karate","arguments":[]},"keyword":"When","line":8,"doc_string":{"content_type":"","value":"09:46:08.251 request:\n1 > GET https:\/\/reqres.in\/api\/register\n1 > Content-Type: application\/json; charset=UTF-8\n1 > Content-Length: 50\n1 > Host: reqres.in\n1 > Connection: Keep-Alive\n1 > User-Agent: Apache-HttpClient\/4.5.14 (Java\/21.0.2)\n1 > Accept-Encoding: gzip,deflate\n{\"email\":\"eve.holt@reqres.in\",\"password\":\"pistol\"}\n\n09:46:08.904 response time in milliseconds: 646\n1 < 200\n1 < Date: Thu, 25 Jan 2024 14:46:08 GMT\n1 < Content-Type: application\/json; charset=utf-8\n1 < Transfer-Encoding: chunked\n1 < Connection: keep-alive\n1 < Report-To: {\"group\":\"heroku-nel\",\"max_age\":3600,\"endpoints\":[{\"url\":\"https:\/\/nel.heroku.com\/reports?ts=1706193968&sid=c4c9725f-1ab0-44d8-820f-430df2718e11&s=LHbFHc2Vi76GbqeklpfNaY4BY3LwY2GGk82a8emGDD0%3D\"}]}\n1 < Reporting-Endpoints: heroku-nel=https:\/\/nel.heroku.com\/reports?ts=1706193968&sid=c4c9725f-1ab0-44d8-820f-430df2718e11&s=LHbFHc2Vi76GbqeklpfNaY4BY3LwY2GGk82a8emGDD0%3D\n1 < Nel: {\"report_to\":\"heroku-nel\",\"max_age\":3600,\"success_fraction\":0.005,\"failure_fraction\":0.05,\"response_headers\":[\"Via\"]}\n1 < X-Powered-By: Express\n1 < Access-Control-Allow-Origin: *\n1 < Etag: W\/\"2c1-N6Rqerxquq2kgQhL51EiSg4x0R8\"\n1 < Via: 1.1 vegur\n1 < Cache-Control: max-age=14400\n1 < CF-Cache-Status: MISS\n1 < Vary: Accept-Encoding\n1 < Server: cloudflare\n1 < CF-RAY: 84b14dd0be414c12-MIA\n{\"page\":1,\"per_page\":6,\"total\":12,\"total_pages\":2,\"data\":[{\"id\":1,\"name\":\"cerulean\",\"year\":2000,\"color\":\"#98B2D1\",\"pantone_value\":\"15-4020\"},{\"id\":2,\"name\":\"fuchsia rose\",\"year\":2001,\"color\":\"#C74375\",\"pantone_value\":\"17-2031\"},{\"id\":3,\"name\":\"true red\",\"year\":2002,\"color\":\"#BF1932\",\"pantone_value\":\"19-1664\"},{\"id\":4,\"name\":\"aqua sky\",\"year\":2003,\"color\":\"#7BC4C4\",\"pantone_value\":\"14-4811\"},{\"id\":5,\"name\":\"tigerlily\",\"year\":2004,\"color\":\"#E2583E\",\"pantone_value\":\"17-1456\"},{\"id\":6,\"name\":\"blue turquoise\",\"year\":2005,\"color\":\"#53B0AE\",\"pantone_value\":\"15-5217\"}],\"support\":{\"url\":\"https:\/\/reqres.in\/#support-heading\",\"text\":\"To keep ReqRes free, contributions towards server costs are appreciated!\"}}\n\n","line":8}},{"name":"status 200","result":{"duration":2954736,"status":"passed"},"match":{"location":"karate","arguments":[]},"keyword":"And","line":9},{"name":"print response","result":{"duration":12063849,"status":"passed"},"match":{"location":"karate","arguments":[]},"keyword":"*","line":10,"doc_string":{"content_type":"","value":"09:46:08.921 [print] {\n  \"page\": 1,\n  \"per_page\": 6,\n  \"total\": 12,\n  \"total_pages\": 2,\n  \"data\": [\n    {\n      \"id\": 1,\n      \"name\": \"cerulean\",\n      \"year\": 2000,\n      \"color\": \"#98B2D1\",\n      \"pantone_value\": \"15-4020\"\n    },\n    {\n      \"id\": 2,\n      \"name\": \"fuchsia rose\",\n      \"year\": 2001,\n      \"color\": \"#C74375\",\n      \"pantone_value\": \"17-2031\"\n    },\n    {\n      \"id\": 3,\n      \"name\": \"true red\",\n      \"year\": 2002,\n      \"color\": \"#BF1932\",\n      \"pantone_value\": \"19-1664\"\n    },\n    {\n      \"id\": 4,\n      \"name\": \"aqua sky\",\n      \"year\": 2003,\n      \"color\": \"#7BC4C4\",\n      \"pantone_value\": \"14-4811\"\n    },\n    {\n      \"id\": 5,\n      \"name\": \"tigerlily\",\n      \"year\": 2004,\n      \"color\": \"#E2583E\",\n      \"pantone_value\": \"17-1456\"\n    },\n    {\n      \"id\": 6,\n      \"name\": \"blue turquoise\",\n      \"year\": 2005,\n      \"color\": \"#53B0AE\",\n      \"pantone_value\": \"15-5217\"\n    }\n  ],\n  \"support\": {\n    \"url\": \"https:\/\/reqres.in\/#support-heading\",\n    \"text\": \"To keep ReqRes free, contributions towards server costs are appreciated!\"\n  }\n}\n \n","line":10}},{"name":"def name = response.data[0].name","result":{"duration":2615355,"status":"passed"},"match":{"location":"karate","arguments":[]},"keyword":"*","line":11},{"name":"match  name == 'cerulean'","result":{"duration":10059002,"status":"passed"},"match":{"location":"karate","arguments":[]},"keyword":"*","line":12}],"tags":[{"name":"@Register","line":3}]}],"name":"ApiREST\/Prueba\/Register.feature","description":"Register Users","id":"register-users","keyword":"Feature","uri":"ApiREST\/Prueba\/Register.feature"}]