{"failedCount":0,"prefixedPath":"classpath:ApiREST\/Prueba\/Register.feature","packageQualifiedName":"ApiREST.Prueba.Register","loopIndex":-1,"relativePath":"ApiREST\/Prueba\/Register.feature","scenarioResults":[{"sectionIndex":0,"stepResults":[{"result":{"nanos":1699835,"startTime":1706193968008,"endTime":1706193968010,"millis":1.699835,"status":"passed"},"step":{"line":5,"prefix":"Given","index":0,"text":"url 'https:\/\/reqres.in\/api\/register'"}},{"result":{"nanos":20131353,"startTime":1706193968011,"endTime":1706193968031,"millis":20.131353,"status":"passed"},"step":{"line":6,"prefix":"*","index":1,"text":"def json = read ('..\/json\/register.json')"}},{"result":{"nanos":6285797,"startTime":1706193968032,"endTime":1706193968038,"millis":6.285797,"status":"passed"},"step":{"line":7,"prefix":"Given","index":2,"text":"request json"}},{"result":{"nanos":868792072,"startTime":1706193968038,"endTime":1706193968907,"millis":868.792072,"status":"passed"},"step":{"line":8,"prefix":"When","index":3,"text":"method GET"},"stepLog":"09:46:08.251 request:\n1 > GET https:\/\/reqres.in\/api\/register\n1 > Content-Type: application\/json; charset=UTF-8\n1 > Content-Length: 50\n1 > Host: reqres.in\n1 > Connection: Keep-Alive\n1 > User-Agent: Apache-HttpClient\/4.5.14 (Java\/21.0.2)\n1 > Accept-Encoding: gzip,deflate\n{\"email\":\"eve.holt@reqres.in\",\"password\":\"pistol\"}\n\n09:46:08.904 response time in milliseconds: 646\n1 < 200\n1 < Date: Thu, 25 Jan 2024 14:46:08 GMT\n1 < Content-Type: application\/json; charset=utf-8\n1 < Transfer-Encoding: chunked\n1 < Connection: keep-alive\n1 < Report-To: {\"group\":\"heroku-nel\",\"max_age\":3600,\"endpoints\":[{\"url\":\"https:\/\/nel.heroku.com\/reports?ts=1706193968&sid=c4c9725f-1ab0-44d8-820f-430df2718e11&s=LHbFHc2Vi76GbqeklpfNaY4BY3LwY2GGk82a8emGDD0%3D\"}]}\n1 < Reporting-Endpoints: heroku-nel=https:\/\/nel.heroku.com\/reports?ts=1706193968&sid=c4c9725f-1ab0-44d8-820f-430df2718e11&s=LHbFHc2Vi76GbqeklpfNaY4BY3LwY2GGk82a8emGDD0%3D\n1 < Nel: {\"report_to\":\"heroku-nel\",\"max_age\":3600,\"success_fraction\":0.005,\"failure_fraction\":0.05,\"response_headers\":[\"Via\"]}\n1 < X-Powered-By: Express\n1 < Access-Control-Allow-Origin: *\n1 < Etag: W\/\"2c1-N6Rqerxquq2kgQhL51EiSg4x0R8\"\n1 < Via: 1.1 vegur\n1 < Cache-Control: max-age=14400\n1 < CF-Cache-Status: MISS\n1 < Vary: Accept-Encoding\n1 < Server: cloudflare\n1 < CF-RAY: 84b14dd0be414c12-MIA\n{\"page\":1,\"per_page\":6,\"total\":12,\"total_pages\":2,\"data\":[{\"id\":1,\"name\":\"cerulean\",\"year\":2000,\"color\":\"#98B2D1\",\"pantone_value\":\"15-4020\"},{\"id\":2,\"name\":\"fuchsia rose\",\"year\":2001,\"color\":\"#C74375\",\"pantone_value\":\"17-2031\"},{\"id\":3,\"name\":\"true red\",\"year\":2002,\"color\":\"#BF1932\",\"pantone_value\":\"19-1664\"},{\"id\":4,\"name\":\"aqua sky\",\"year\":2003,\"color\":\"#7BC4C4\",\"pantone_value\":\"14-4811\"},{\"id\":5,\"name\":\"tigerlily\",\"year\":2004,\"color\":\"#E2583E\",\"pantone_value\":\"17-1456\"},{\"id\":6,\"name\":\"blue turquoise\",\"year\":2005,\"color\":\"#53B0AE\",\"pantone_value\":\"15-5217\"}],\"support\":{\"url\":\"https:\/\/reqres.in\/#support-heading\",\"text\":\"To keep ReqRes free, contributions towards server costs are appreciated!\"}}\n\n"},{"result":{"nanos":2954736,"startTime":1706193968907,"endTime":1706193968910,"millis":2.954736,"status":"passed"},"step":{"line":9,"prefix":"And","index":4,"text":"status 200"}},{"result":{"nanos":12063849,"startTime":1706193968910,"endTime":1706193968922,"millis":12.063849,"status":"passed"},"step":{"line":10,"prefix":"*","index":5,"text":"print response"},"stepLog":"09:46:08.921 [print] {\n  \"page\": 1,\n  \"per_page\": 6,\n  \"total\": 12,\n  \"total_pages\": 2,\n  \"data\": [\n    {\n      \"id\": 1,\n      \"name\": \"cerulean\",\n      \"year\": 2000,\n      \"color\": \"#98B2D1\",\n      \"pantone_value\": \"15-4020\"\n    },\n    {\n      \"id\": 2,\n      \"name\": \"fuchsia rose\",\n      \"year\": 2001,\n      \"color\": \"#C74375\",\n      \"pantone_value\": \"17-2031\"\n    },\n    {\n      \"id\": 3,\n      \"name\": \"true red\",\n      \"year\": 2002,\n      \"color\": \"#BF1932\",\n      \"pantone_value\": \"19-1664\"\n    },\n    {\n      \"id\": 4,\n      \"name\": \"aqua sky\",\n      \"year\": 2003,\n      \"color\": \"#7BC4C4\",\n      \"pantone_value\": \"14-4811\"\n    },\n    {\n      \"id\": 5,\n      \"name\": \"tigerlily\",\n      \"year\": 2004,\n      \"color\": \"#E2583E\",\n      \"pantone_value\": \"17-1456\"\n    },\n    {\n      \"id\": 6,\n      \"name\": \"blue turquoise\",\n      \"year\": 2005,\n      \"color\": \"#53B0AE\",\n      \"pantone_value\": \"15-5217\"\n    }\n  ],\n  \"support\": {\n    \"url\": \"https:\/\/reqres.in\/#support-heading\",\n    \"text\": \"To keep ReqRes free, contributions towards server costs are appreciated!\"\n  }\n}\n \n"},{"result":{"nanos":2615355,"startTime":1706193968922,"endTime":1706193968925,"millis":2.615355,"status":"passed"},"step":{"line":11,"prefix":"*","index":6,"text":"def name = response.data[0].name"}},{"result":{"nanos":10059002,"startTime":1706193968925,"endTime":1706193968935,"millis":10.059002,"status":"passed"},"step":{"line":12,"prefix":"*","index":7,"text":"match  name == 'cerulean'"}}],"line":4,"description":"","durationMillis":924.601999,"failed":false,"tags":["Register"],"executorName":"pool-1-thread-1","name":"Register Users tipo 1","startTime":1706193968001,"refId":"[1:4]","endTime":1706193968935,"exampleIndex":-1}],"callDepth":0,"name":"Register Users","description":"","resultDate":"2024-01-25 09:46:08 a.\u202Fm.","durationMillis":924.601999,"passedCount":1}